---
title: Audit Data Analytics Part4
author: ''
date: '2019-11-18'
slug: audit-data-analytics-part4
categories: []
tags: []
---

This part covers EDA. Target variable is revenue.

Numeric descriptive statistics

  # A tibble: 41 x 13
     type  variable missing complete n     mean  sd    p0    p25   p50  
     <chr> <chr>    <chr>   <chr>    <chr> <chr> <chr> <chr> <chr> <chr>
   1 nume~ account~ 0       184      184   "  1~ " 11~ 0     0     0    
   2 nume~ adverti~ 0       184      184   "  1~ "  7~ 0     0     0    
   3 nume~ busines~ 0       184      184   "   ~ "  5~ 0     0     0    
   4 nume~ car_lea~ 0       184      184   "  3~ " 13~ 0     0     0    
   5 nume~ compute~ 0       184      184   "   ~ "  2~ 0     0     0    
   6 nume~ confere~ 0       184      184   "  2~ " 23~ 0     0     0    
   7 nume~ contrib~ 0       184      184   "  1~ " 18~ 0     0     0    
   8 nume~ depreci~ 0       184      184   "   ~ "  1~ 0     0     0    
   9 nume~ dues_an~ 0       184      184   "  1~ "  9~ 0     0     0    
  10 nume~ employe~ 0       184      184   "  1~ "  4~ 0     0     0    
  # ... with 31 more rows, and 3 more variables: p75 <chr>, p100 <chr>,
  #   hist <chr>
…
