…
This part covers audit procedures generally performed on sales and AR accounts.

Digit tests

Duplicated JV No.

Same JV numbers (date, customer, amount) happen because of different memo.

  # A tibble: 90 x 2
     num   `n()`
     <chr> <int>
   1 71047    10
   2 71048     8
   3 71049     9
   4 71050     9
   5 71051     6
   6 71052    10
   7 71053     4
   8 71054     6
   9 71055     6
  10 71056     6
  # ... with 80 more rows
…
Same same same test (SSS)

  # A tibble: 817 x 5
  # Groups:   num, date, name [94]
     num   date       name                                    credit  freq
     <chr> <date>     <chr>                                    <dbl> <int>
   1 71123 2018-11-29 Kern Lighting Warehouse:Store #13          0       3
   2 71052 2018-02-27 Baker's Professional Lighting:Store #15  210       2
   3 71064 2018-04-22 Godwin Lighting Depot:Store #404          75.6     2
   4 71065 2018-03-26 Godwin Lighting Depot:Store #303          75.6     2
   5 71066 2018-04-28 Godwin Lighting Depot:Store #909          75.6     2
   6 71068 2018-05-10 Godwin Lighting Depot:Store #909          75.6     2
   7 71069 2018-05-30 Godwin Lighting Depot:Store #1020         75.6     2
   8 71070 2018-06-11 Godwin Lighting Depot:Store #303          75.6     2
   9 71073 2018-08-31 Cole Home Builders:Phase 1 - Lot 5       270       2
  10 71074 2018-08-24 Cole Home Builders:Phase 1 - Lot 5       270       2
  # ... with 807 more rows
…
  # A tibble: 29 x 6
     date       num   name               memo                    debit credit
     <date>     <chr> <chr>              <chr>                   <dbl>  <dbl>
   1 2018-03-26 71065 Godwin Lighting D~ Drop Opal w/Solid Oak ~     0   75.6
   2 2018-03-26 71065 Godwin Lighting D~ Cand. Light, 20 watts ~     0   75.6
   3 2018-04-22 71064 Godwin Lighting D~ Drop Opal w/Solid Oak ~     0   75.6
   4 2018-04-22 71064 Godwin Lighting D~ Cand. Light, 20 watts ~     0   75.6
   5 2018-04-28 71066 Godwin Lighting D~ Drop Opal w/Solid Oak ~     0   75.6
   6 2018-04-28 71066 Godwin Lighting D~ Cand. Light, 20 watts ~     0   75.6
   7 2018-04-28 71067 Dan A. North Buil~ Fluorescent Lamp, T-12~     0   75  
   8 2018-05-10 71068 Godwin Lighting D~ Drop Opal w/Solid Oak ~     0   75.6
   9 2018-05-10 71068 Godwin Lighting D~ Cand. Light, 20 watts ~     0   75.6
  10 2018-05-16 71095 Miscellaneous - R~ Pendant Bar, Cobblesto~     0   75  
  # ... with 19 more rows

Number duplication test (NDT)

Confirms to Benford’s law which concludes 75 is much suspicious than others.

  # A tibble: 78 x 2
     first_two     n
     <chr>     <int>
   1 12           12
   2 13            9
   3 11            7
   4 18            7
   5 19            7
   6 10            6
   7 21            6
   8 22            6
   9 28            6
  10 14            5
  # ... with 68 more rows
…
