…
Month over month sales by customers

  # A tibble: 28 x 4
  # Groups:   name [14]
     yearmonth name                                    monthlysales   mom
     <chr>     <chr>                                          <dbl> <dbl>
   1 2018-12   Baker's Professional Lighting:Store #10       10680. 424. 
   2 2018-12   Lavery Lighting & Design:Store #JL-08          2708. 351. 
   3 2018-12   Thompson Lighting Stores:Store #15            11800  290. 
   4 2018-06   Cole Home Builders:Phase 1 - Lot 5             5834. 256. 
   5 2018-02   Cole Home Builders:Phase 2 - Lot 5             4364   99.5
   6 2018-04   Godwin Lighting Depot:Store #202               1688. -78.3
   7 2018-07   Cole Home Builders:Phase 1 - Lot 5             9803.  68  
   8 2018-06   Kern Lighting Warehouse:Store #45             14175   66.8
   9 2018-05   Cole Home Builders:Phase 2 - Lot 5             1637. -62.5
  10 2018-11   Kern Lighting Warehouse:Store #01              9839  -60.8
  # ... with 18 more rows

Relative Size Factor test (RSF)

Could also include mean computed without the first larget number to help you decide relevant RSF score. Here, 0.6 is the chosen cut-off.

  # A tibble: 43 x 5
  # Groups:   name [43]
     date       num   name               memo                             rsf
     <date>     <chr> <chr>              <chr>                          <dbl>
   1 2018-02-14 71110 Baker's Professio~ River Rock (8/60 watt)  Faux ~ 0.706
   2 2018-12-07 71138 Baker's Professio~ Fluorescent Lamp, Medium Bipi~ 0.945
   3 2018-03-11 71048 Baker's Professio~ Polished Brass Pendant, 1-100~ 0.778
   4 2018-01-06 71047 Baker's Professio~ Pearl Nickle, 5 Light, Medium~ 0.95 
   5 2018-02-12 71088 Cole Home Builder~ Pearl Nickle, 5 Light, Medium~ 0.931
   6 2018-05-24 71086 Cole Home Builder~ Pearl Nickle, 5 Light, Medium~ 0.931
   7 2018-06-07 71085 Cole Home Builder~ Die Cast Lanterns, Black, 1-1~ 1    
   8 2018-08-22 71109 Dan A. North Buil~ Tapestry, (2-60 watt Med), Et~ 0.9  
   9 2018-04-28 71067 Dan A. North Buil~ Beveled Mirror, Etched Ribbed~ 0.807
  10 2018-05-30 71069 Godwin Lighting D~ Verona Collection, Pendant, C~ 0.923
  # ... with 33 more rows
…
