Audit Data Analytics Part1 - RAudit Solution LLP
…
Round numbers

  # A tibble: 36 x 8
        id account      subaccount      type    date       num   debit credit
     <dbl> <chr>        <chr>           <chr>   <date>     <chr> <dbl>  <dbl>
   1    27 Company Che~ Company Checki~ Check   2018-01-31 5025      0   1000
   2    40 Company Che~ Company Checki~ Transf~ 2018-02-09 <NA>      0  10000
   3   101 Company Che~ Company Checki~ Check   2018-03-26 5075      0  10000
   4   172 Company Che~ Company Checki~ Check   2018-05-25 5124      0  12000
   5   210 Company Che~ Company Checki~ Bill P~ 2018-06-29 5156      0   1000
   6   226 Company Che~ Company Checki~ Transf~ 2018-07-20 <NA>      0  10000
   7   240 Company Che~ Company Checki~ Check   2018-07-25 5179      0  10000
   8   272 Company Che~ Company Checki~ Check   2018-08-22 5206      0   3000
   9   279 Company Che~ Company Checki~ Check   2018-08-27 5214      0  12000
  10   320 Company Che~ Company Checki~ Bill P~ 2018-10-05 3079      0   6000
  # ... with 26 more rows
…
